{
  "configVersion": 2,
  "packages": [
    {
      "name": "dart_nn",
      "rootUri": "file:///Users/mac020/.pub-cache/hosted/pub.dartlang.org/dart_nn-2.0.0+2",
      "packageUri": "lib/",
      "languageVersion": "2.7"
    },
    {
      "name": "dart_numerics",
      "rootUri": "file:///Users/mac020/.pub-cache/hosted/pub.dartlang.org/dart_numerics-0.0.5",
      "packageUri": "lib/",
      "languageVersion": "2.0"
    },
    {
      "name": "matcher",
      "rootUri": "file:///Users/mac020/.pub-cache/hosted/pub.dartlang.org/matcher-0.12.6",
      "packageUri": "lib/",
      "languageVersion": "2.2"
    },
    {
      "name": "meta",
      "rootUri": "file:///Users/mac020/.pub-cache/hosted/pub.dartlang.org/meta-1.1.8",
      "packageUri": "lib/",
      "languageVersion": "1.12"
    },
    {
      "name": "path",
      "rootUri": "file:///Users/mac020/.pub-cache/hosted/pub.dartlang.org/path-1.6.4",
      "packageUri": "lib/",
      "languageVersion": "2.0"
    },
    {
      "name": "quiver",
      "rootUri": "file:///Users/mac020/.pub-cache/hosted/pub.dartlang.org/quiver-2.1.3",
      "packageUri": "lib/",
      "languageVersion": "2.0"
    },
    {
      "name": "stack_trace",
      "rootUri": "file:///Users/mac020/.pub-cache/hosted/pub.dartlang.org/stack_trace-1.9.3",
      "packageUri": "lib/",
      "languageVersion": "1.23"
    },
    {
      "name": "tuple",
      "rootUri": "file:///Users/mac020/.pub-cache/hosted/pub.dartlang.org/tuple-1.0.3",
      "packageUri": "lib/",
      "languageVersion": "2.0"
    },
    {
      "name": "xor",
      "rootUri": "../",
      "packageUri": "lib/",
      "languageVersion": "2.7"
    }
  ],
  "generated": "2020-07-03T00:31:24.441508Z",
  "generator": "pub",
  "generatorVersion": "2.7.1"
}
